{
  "type": "service_account",
  "project_id": "eip-colligo",
  "private_key_id": "0ff7a24508520caf83871abd38044d5197c8ca21",
  "private_key": "-----BEGIN PRIVATE KEY-----\nMIIEvQIBADANBgkqhkiG9w0BAQEFAASCBKcwggSjAgEAAoIBAQC3gC4SYpFeACkr\nIB8ighB8CvSFoPPCMHfxc9kHXn0fgaXAGX55hXL2JSzu4mI4b/66BvuXszAXcOY/\nAMWnaLPuT82+VFqdKz7i2G/pi5XXAD4Co52T9flhE3ehh1wFLftH+xOAbGGphvfV\nLxMuvAa4AEncBEBRQwrdlkk8ACs5BSQRGeolP6UwePbayVPrPJ8SsOIW+z2bVfHa\nrIANvo63f+Q7sBF1wPA8fKO6k5rX1EVzCknfNRovM/V8EQA4bRBwLRgD1oWWDjln\n48iuJlfKq/Q7KuhUfD6nQ1NBi5zQUVGB507KCbEVPQdSnAaIi+rpuHc3d8aOy6zn\nzNYNek4ZAgMBAAECggEABhfpT756rcirFU3GguaXRgs2FfbjiUwDO58ZcptyY7iy\nKJggIUhrah2PaapWUSH07zf6pE20t96NosNzjMzXBr+bKSoTbTsppi5CPxrdwas2\nI+/LdIWbP5w+IXzFcz2U5c3CVsYikxbShX9/71IalgMacMYqXZhwlK2gJnAp/0Vs\nO5MTommiuOl7Iy4W1inVBYV9dDldWcCDvaaCPt5mmf8dygyGotj3oSeEdclJkc3f\ngSCb2re8BlBuCHQIeQYbX8opdJs1uWxZL0f7zPkkhRbyT3h5G7wDqHH32za8eN4o\nmUoP4aWcLoABT/JYVoEHe8I0tPkaJ7BY1v1TlnTCNQKBgQDsXeM0s9Y8SF7+tnqW\nFccbEpyuwV7fEg1hHUm4QxNEAqdi540Mo0oCxebVcknlW4QP3wiVb5+h0BeZXrlI\n9p3JPOKjMfRs/MIIsJgMDWySo6vKJgG2iFWduOQLY3R10x2e8uNzVHGHgNyGZtod\ne/B3FN8GnAIJiLzU/nHwByCTrQKBgQDGviWKAhG6PqBcHIRhZyhilIf0byEUnog8\nQm3wPhv1dq4fnVOb7/LyCV/jAkvX4fSYY+kfHtjvFmOiYo/sidJKLsmASXe3aviK\nR1kFENZMDPppfzQgCjAra4T56fXmIZ+hVNsTwHgZGRM2BgAp8SBDIG+h7vkIILss\nVTSZh55RnQKBgQCaJn0IIQTmGbjCW1XFTfylHlVK71elGYvaOxSZ9Dy7TRPHQAXQ\nKSoaduCdccTZrP6Kr0VU2BB+okzRvGIQQK4U0P1puymSbqFIs4rlyVd2pwFhe7oA\nRhe4Hh2zg7AvK3kU8Yj+7SKBYbvwd2Fmey8PKnBtSg9WEnQ8YJkEFlHbnQKBgHQp\nNUW5ueTSr+XGoTVRFxCvYdtjjMFBe71E0n8lvi+1Q0alLPYqxCPliM7lS7ENl2nu\nk5Yl8IOl4WxLEXYeg/Pp7sp1pmxlMImZ9BT651YiC8bXm37SlZ77RAjST3BH3MZu\nE3Iy/78joc/kp/nbvpCdh8HtLE8s2lmqH4lQ9B8dAoGACV9y2CuRWe2MXemlqPGt\nzzQ+tXA9F68rAXmB4N37Ejd3MnFBw3XaVUyUzd44qumUuzckf0uzpINd3GEBSnRi\ntzYGMbgW3fZSzWl30dDSS44hAoMaTcgYlMq7RADu7SWtudd1K0QMR9+sedbNa1Rk\nz4MNFfBAX19HraJg2llzNZs=\n-----END PRIVATE KEY-----\n",
  "client_email": "firebase-adminsdk-8f062@eip-colligo.iam.gserviceaccount.com",
  "client_id": "103667500022650817193",
  "auth_uri": "https://accounts.google.com/o/oauth2/auth",
  "token_uri": "https://oauth2.googleapis.com/token",
  "auth_provider_x509_cert_url": "https://www.googleapis.com/oauth2/v1/certs",
  "client_x509_cert_url": "https://www.googleapis.com/robot/v1/metadata/x509/firebase-adminsdk-8f062%40eip-colligo.iam.gserviceaccount.com"
}
